﻿[

  {

    "idcs": "ssssss1234",
    "username": "khaowoat",
    "password": "1234",
    "fname": "suttita",
    "lname": "jankham",
    "address": "22/112 ม.19 ต.บ้านเป็ด อ.เมือง จ.ขอนแก่น 40000",
    "tel": "0819742414",
    "cmtype": "customer"
  }
]